IODS course project
…
## # A tibble: 4 x 3
## # Groups:   sex [2]
##   sex   high_use count
##   <chr> <lgl>    <int>
## 1 F     FALSE      154
## 2 F     TRUE        41
## 3 M     FALSE      105
## 4 M     TRUE        70

pormath %>% group_by(absences, high_use) %>% summarise(count = n())

## `summarise()` has grouped output by 'absences'. You can override using the `.groups` argument.

## # A tibble: 43 x 3
## # Groups:   absences [26]
##    absences high_use count
##       <int> <lgl>    <int>
##  1        0 FALSE       50
##  2        0 TRUE        13
##  3        1 FALSE       37
##  4        1 TRUE        13
##  5        2 FALSE       40
##  6        2 TRUE        16
##  7        3 FALSE       31
##  8        3 TRUE         7
##  9        4 FALSE       24
## 10        4 TRUE        11
## # ... with 33 more rows
…
